^D:\GIT\GIT VISUAL\CONSOLEAPPLICATION16\CONSOLEAPPLICATION16\CONSOLEAPPLICATION16.CPP
D:\GIT\GIT VISUAL\CONSOLEAPPLICATION16\CONSOLEAPPLICATION16\DEBUG\VC142.PDB
D:\GIT\GIT VISUAL\CONSOLEAPPLICATION16\CONSOLEAPPLICATION16\DEBUG\VC142.IDB
D:\GIT\GIT VISUAL\CONSOLEAPPLICATION16\CONSOLEAPPLICATION16\DEBUG\CONSOLEAPPLICATION16.OBJ
